\relax 
\citation{ref1}
\citation{ref1}
\citation{ref30,ref31,ref32}
\citation{ref2,ref3,ref4,ref5}
\citation{ref6,ref20,ref21,ref22}
\citation{ref23}
\@LN@col{1}
\@writefile{toc}{\contentsline {section}{\numberline {I}Introduction}{1}}
\@LN@col{2}
\citation{ref35}
\citation{ref7,ref8,ref9,ref10}
\citation{ref11,ref12,ref13,ref14,ref15}
\citation{ref14}
\citation{ref17}
\citation{ref16}
\citation{ref15}
\citation{ref36,ref37}
\citation{ref18,ref19}
\citation{ref18}
\citation{ref19}
\citation{ref6}
\citation{ref34}
\citation{ref20}
\@LN@col{1}
\@writefile{lof}{\contentsline {figure}{\numberline {1}{\ignorespaces Our coarse-to-fine framework for CMF landmark localization on CBCT images. In the first stage, we input the entire down-sampled image, and get the coarse locations of all landmarks, one of the coarse landmarks is highlighted by a red rectangle. From the second stage, we sample image patches from a higher resolution image surrounding the rough landmark locations and refine landmarks\IeC {\textquoteright } locations (blue rectangle). In the last stage, we get final landmarks (green rectangle) using the similar way in the second stage while on original image patches.\relax }}{2}}
\providecommand*\caption@xref[2]{\@setref\relax\@undefined{#1}}
\newlabel{fig3}{{1}{2}}
\@LN@col{2}
\@writefile{toc}{\contentsline {section}{\numberline {II}related work}{2}}
\@writefile{toc}{\contentsline {subsection}{\numberline {II-A}Anatomical Landmark Detection}{2}}
\citation{ref23}
\citation{ref23}
\citation{ref25}
\citation{ref24}
\@writefile{lof}{\contentsline {figure}{\numberline {2}{\ignorespaces The workflow of our network for CMF landmark detection used at each stage.\relax }}{3}}
\newlabel{fig2}{{2}{3}}
\@LN@col{1}
\@writefile{toc}{\contentsline {subsection}{\numberline {II-B}Mask R-CNN}{3}}
\@writefile{toc}{\contentsline {section}{\numberline {III}method}{3}}
\@LN@col{2}
\@writefile{toc}{\contentsline {subsection}{\numberline {III-A}Multi-Region Proposal Network (Multi-RPN) }{3}}
\citation{ref27}
\citation{ref23}
\newlabel{fig:dummy}{{\caption@xref {fig:dummy}{ on input line 106}}{4}}
\@writefile{lof}{\contentsline {figure}{\numberline {3}{\ignorespaces The Architecture of the proposed Mask R-CNN for detecting landmarks.\relax }}{4}}
\newlabel{fig3}{{3}{4}}
\@LN@col{1}
\@writefile{toc}{\contentsline {subsection}{\numberline {III-B}Bounding Box Recognition Network}{4}}
\@LN@col{2}
\@writefile{lot}{\contentsline {table}{\numberline {I}{\ignorespaces \MakeUppercase  {The network architecture of RPN}\relax }}{4}}
\newlabel{tab1}{{I}{4}}
\citation{ref35}
\@LN@col{1}
\newlabel{fig:dummy}{{\caption@xref {fig:dummy}{ on input line 191}}{5}}
\@writefile{lof}{\contentsline {figure}{\numberline {4}{\ignorespaces Illustrations of predefined anatomical landmark regions.\relax }}{5}}
\newlabel{fig4}{{4}{5}}
\@writefile{lof}{\contentsline {subfigure}{\numberline{(a)}{\ignorespaces {}}}{5}}
\@writefile{lof}{\contentsline {subfigure}{\numberline{(b)}{\ignorespaces {}}}{5}}
\@writefile{lof}{\contentsline {subfigure}{\numberline{(c)}{\ignorespaces {}}}{5}}
\@writefile{lof}{\contentsline {subfigure}{\numberline{(d)}{\ignorespaces {}}}{5}}
\@writefile{toc}{\contentsline {subsection}{\numberline {III-C}Modeling of Landmark Dependencies}{5}}
\@LN@col{2}
\@writefile{lot}{\contentsline {table}{\numberline {II}{\ignorespaces \MakeUppercase  {The network architecture of improved bounding box recognition network}\relax }}{5}}
\newlabel{tab2}{{II}{5}}
\@writefile{toc}{\contentsline {subsection}{\numberline {III-D}Coarse-to-Fine Framework}{5}}
\citation{ref28}
\citation{ref4}
\citation{ref6}
\citation{ref6}
\citation{ref20}
\citation{ref6}
\citation{ref20}
\@LN@col{1}
\@writefile{toc}{\contentsline {subsection}{\numberline {III-E}Network Implementation and Inference }{6}}
\@writefile{toc}{\contentsline {section}{\numberline {IV}Experiment and results}{6}}
\@writefile{toc}{\contentsline {subsection}{\numberline {IV-A}Experimental Data}{6}}
\@LN@col{2}
\@writefile{toc}{\contentsline {subsection}{\numberline {IV-B}Comparison Methods}{6}}
\@writefile{toc}{\contentsline {subsection}{\numberline {IV-C}Results of Comparisons}{6}}
\citation{ref20}
\@writefile{lot}{\contentsline {table}{\numberline {III}{\ignorespaces \MakeUppercase  {The landmark detection results in terms of mean squared error (mm), obtained by different methods in 9 anatomical regions and the whole volume}\relax }}{7}}
\newlabel{tab3}{{III}{7}}
\@writefile{lof}{\contentsline {figure}{\numberline {5}{\ignorespaces  The comparison of the landmark localization results on a randomly selected patient\IeC {\textquoteright }s model. The midface and the mandible are separated for the better illustration.\relax }}{7}}
\newlabel{fig6}{{5}{7}}
\@writefile{lot}{\contentsline {table}{\numberline {IV}{\ignorespaces \MakeUppercase  {The landmark detection results in terms of mean squared error (mm), FP rate and FN rate on patients with three different deformity types}\relax }}{7}}
\newlabel{tab4}{{IV}{7}}
\@LN@col{2}
\citation{ref35}
\citation{ref35}
\citation{ref35}
\newlabel{fig:dummy}{{\caption@xref {fig:dummy}{ on input line 355}}{8}}
\@writefile{lof}{\contentsline {figure}{\numberline {6}{\ignorespaces Qualitative results for patients with slight deformity (left), severe deformity (middle) and defects (right).\relax }}{8}}
\newlabel{fig6}{{6}{8}}
\@writefile{lof}{\contentsline {subfigure}{\numberline{(a)}{\ignorespaces {Qualitative results by using M RCNN}}}{8}}
\@writefile{lof}{\contentsline {subfigure}{\numberline{(b)}{\ignorespaces {Qualitative results by using our approach}}}{8}}
\@LN@col{1}
\@writefile{toc}{\contentsline {subsection}{\numberline {IV-D}Ablation Study}{8}}
\@writefile{toc}{\contentsline {subsubsection}{\numberline {IV-D.1}Effectiveness of Landmark Dependency Model}{8}}
\@LN@col{2}
\@writefile{toc}{\contentsline {subsubsection}{\numberline {IV-D.2}Effectiveness of Multi-Scale Bounding Box Ground Truth}{8}}
\citation{ref35}
\citation{ref35}
\citation{ref33}
\@LN@col{1}
\@writefile{lof}{\contentsline {figure}{\numberline {7}{\ignorespaces Detection results by using different size of bounding box ground truth.\relax }}{9}}
\newlabel{fig7}{{7}{9}}
\@writefile{toc}{\contentsline {subsubsection}{\numberline {IV-D.3}Effectiveness of Multi-RPN}{9}}
\@writefile{lot}{\contentsline {table}{\numberline {V}{\ignorespaces \MakeUppercase  {The landmark localization results in terms of mean squared error (mm) with/without multi-RPN}\relax }}{9}}
\newlabel{tab5}{{V}{9}}
\@writefile{toc}{\contentsline {section}{\numberline {V}Discussion}{9}}
\@writefile{toc}{\contentsline {subsection}{\numberline {V-A}Influence of Patch Size}{9}}
\@LN@col{2}
\@writefile{lof}{\contentsline {figure}{\numberline {8}{\ignorespaces Detection results by using different size of image patch.\relax }}{9}}
\newlabel{fig8}{{8}{9}}
\@writefile{toc}{\contentsline {subsection}{\numberline {V-B}Limitation and Future Work}{9}}
\@writefile{toc}{\contentsline {section}{\numberline {VI}Conclusion}{9}}
\bibcite{ref1}{1}
\bibcite{ref2}{2}
\bibcite{ref3}{3}
\bibcite{ref4}{4}
\bibcite{ref5}{5}
\bibcite{ref6}{6}
\bibcite{ref7}{7}
\bibcite{ref8}{8}
\bibcite{ref9}{9}
\bibcite{ref10}{10}
\bibcite{ref11}{11}
\bibcite{ref12}{12}
\bibcite{ref13}{13}
\bibcite{ref14}{14}
\bibcite{ref15}{15}
\bibcite{ref16}{16}
\bibcite{ref17}{17}
\bibcite{ref18}{18}
\bibcite{ref19}{19}
\bibcite{ref20}{20}
\bibcite{ref21}{21}
\bibcite{ref22}{22}
\bibcite{ref23}{23}
\bibcite{ref24}{24}
\bibcite{ref25}{25}
\bibcite{ref26}{26}
\bibcite{ref27}{27}
\bibcite{ref28}{28}
\bibcite{ref29}{29}
\bibcite{ref30}{30}
\bibcite{ref31}{31}
\bibcite{ref32}{32}
\bibcite{ref33}{33}
\bibcite{ref34}{34}
\bibcite{ref35}{35}
\bibcite{ref36}{36}
\bibcite{ref37}{37}
\bibcite{ref38}{38}
\bibcite{ref39}{39}
\bibcite{ref40}{40}
\@LN@col{1}
\@writefile{toc}{\contentsline {section}{References}{10}}
\@LN@col{2}
